\relax 
\providecommand\hyper@newdestlabel[2]{}
\catcode `"\active 
\providecommand\HyperFirstAtBeginDocument{\AtBeginDocument}
\HyperFirstAtBeginDocument{\ifx\hyper@anchor\@undefined
\global\let\oldcontentsline\contentsline
\gdef\contentsline#1#2#3#4{\oldcontentsline{#1}{#2}{#3}}
\global\let\oldnewlabel\newlabel
\gdef\newlabel#1#2{\newlabelxx{#1}#2}
\gdef\newlabelxx#1#2#3#4#5#6{\oldnewlabel{#1}{{#2}{#3}}}
\AtEndDocument{\ifx\hyper@anchor\@undefined
\let\contentsline\oldcontentsline
\let\newlabel\oldnewlabel
\fi}
\fi}
\global\let\hyper@last\relax 
\gdef\HyperFirstAtBeginDocument#1{#1}
\providecommand\HyField@AuxAddToFields[1]{}
\providecommand\HyField@AuxAddToCoFields[2]{}
\select@language{portuguese}
\@writefile{toc}{\select@language{portuguese}}
\@writefile{lof}{\select@language{portuguese}}
\@writefile{lot}{\select@language{portuguese}}
\@writefile{toc}{\contentsline {section}{\numberline {I}Introdu\IeC {\c c}\IeC {\~a}o}{1}{section.1}}
\newlabel{eq:discrete}{{1}{1}{Introdução}{equation.1.1}{}}
\@writefile{toc}{\contentsline {section}{\numberline {II}Ferramentas de Simula\IeC {\c c}\IeC {\~a}o e Aspectos do Programa}{1}{section.2}}
\@writefile{toc}{\contentsline {subsection}{\numberline {II.1}Uma Simula\IeC {\c c}\IeC {\~a}o com Classe}{1}{subsection.2.1}}
\@writefile{toc}{\contentsline {subsubsection}{\numberline {II.1.a}Elementos de \texttt  {Trajectory}}{1}{subsubsection.2.1.1}}
\bibcite{LCET:Guia}{1}
\@writefile{toc}{\contentsline {subsubsection}{\numberline {II.1.b}Fun\IeC {\c c}\IeC {\~o}es de \texttt  {Action - PIterate}}{2}{subsubsection.2.1.2}}
\providecommand*\caption@xref[2]{\@setref\relax\@undefined{#1}}
\newlabel{wrap-fig:1}{{\caption@xref {wrap-fig:1}{ on input line 33}}{2}{Funções de \texttt {Action - PIterate}}{figure.caption.1}{}}
\@writefile{lof}{\contentsline {figure}{\numberline {1}{\ignorespaces Ilustra\IeC {\c c}\IeC {\~a}o do m\IeC {\'e}todo de gera\IeC {\c c}\IeC {\~a}o de configura\IeC {\c c}\IeC {\~o}es.\relax }}{2}{figure.caption.1}}
\@writefile{toc}{\contentsline {subsubsection}{\numberline {II.1.c}Fun\IeC {\c c}\IeC {\~o}es de Action \texttt  {IIterate}}{2}{subsubsection.2.1.3}}
\@writefile{toc}{\contentsline {section}{\numberline {III}Estudo da simula\IeC {\c c}\IeC {\~a}o de uma Par\IeC {\'a}bola}{2}{section.3}}
\@writefile{toc}{\contentsline {section}{\numberline {IV}Estudo da simula\IeC {\c c}\IeC {\~a}o de um movimento oscilat\IeC {\'o}rio}{2}{section.4}}
\@writefile{toc}{\contentsline {section}{\numberline {V}Simula\IeC {\c c}\IeC {\~a}o de uma trajetoria de Brachistochrone}{2}{section.5}}
\@writefile{toc}{\contentsline {section}{\numberline {VI}Conclus\IeC {\~o}es}{2}{section.6}}
