0  0
0.004  0.055749
0.008  0.111339
0.012  0.166769
0.016  0.22204
0.02  0.277152
0.024  0.332104
0.028  0.386897
0.032  0.441531
0.036  0.496006
0.04  0.550321
0.044  0.604477
0.048  0.658474
0.052  0.712312
0.056  0.765991
0.06  0.819511
0.064  0.872872
0.068  0.926074
0.072  0.979118
0.076  1.032
0.08  1.08473
0.084  1.13729
0.088  1.1897
0.092  1.24195
0.096  1.29404
0.1  1.34597
0.104  1.39774
0.108  1.44935
0.112  1.5008
0.116  1.55209
0.12  1.60322
0.124  1.6542
0.128  1.70501
0.132  1.75567
0.136  1.80616
0.14  1.8565
0.144  1.90668
0.148  1.9567
0.152  2.00671
0.156  2.05671
0.16  2.1067
0.164  2.15671
0.168  2.20671
0.172  2.25672
0.176  2.3067
0.18  2.3567
0.184  2.4067
0.188  2.45671
0.192  2.50671
0.196  2.55671
0.2  2.60669
0.204  2.65671
0.208  2.70671
0.212  2.75671
0.216  2.80671
0.22  2.8567
0.224  2.9067
0.228  2.95672
0.232  3.0067
0.236  3.05671
0.24  3.1067
0.244  3.1567
0.248  3.20672
0.252  3.2567
0.256  3.30652
0.26  3.35618
0.264  3.40568
0.268  3.45502
0.272  3.50421
0.276  3.55323
0.28  3.6021
0.284  3.65081
0.288  3.69935
0.292  3.74774
0.296  3.79597
0.3  3.84404
0.304  3.89196
0.308  3.93971
0.312  3.9873
0.316  4.03473
0.32  4.08201
0.324  4.12913
0.328  4.17608
0.332  4.22288
0.336  4.26952
0.34  4.316
0.344  4.36232
0.348  4.40848
0.352  4.45448
0.356  4.50032
0.36  4.54601
0.364  4.59153
0.368  4.6369
0.372  4.68211
0.376  4.72715
0.38  4.77204
0.384  4.81677
0.388  4.86134
0.392  4.90575
0.396  4.95
