0  0
0.01  0.0226374
0.02  0.0442709
0.03  0.0650172
0.04  0.084761
0.05  0.103756
0.06  0.121715
0.07  0.138689
0.08  0.154715
0.09  0.169902
0.1  0.184037
0.11  0.197211
0.12  0.209607
0.13  0.221271
0.14  0.231896
0.15  0.241706
0.16  0.250487
0.17  0.25844
0.18  0.265444
0.19  0.271864
0.2  0.277108
0.21  0.281755
0.22  0.286051
0.23  0.288709
0.24  0.291288
0.25  0.293766
0.26  0.294769
0.27  0.295362
0.28  0.296014
0.29  0.297795
0.3  0.303914
0.31  0.313258
0.32  0.321449
0.33  0.330866
0.34  0.34
0.35  0.35
0.36  0.36
0.37  0.37086
0.38  0.380796
0.39  0.39
0.4  0.4
0.41  0.41
0.42  0.42
0.43  0.43
0.44  0.44
0.45  0.45
0.46  0.46
0.47  0.47
0.48  0.48
0.49  0.49
0.5  0.5
0.51  0.51
0.52  0.52
0.53  0.53
0.54  0.54
0.55  0.55
0.56  0.56
0.57  0.57
0.58  0.58
0.59  0.59
0.6  0.6
0.61  0.61
0.62  0.62
0.63  0.63
0.64  0.64
0.65  0.65
0.66  0.66
0.67  0.67
0.68  0.68
0.69  0.69
0.7  0.7
0.71  0.71
0.72  0.72
0.73  0.73
0.74  0.74
0.75  0.75
0.76  0.76
0.77  0.77
0.78  0.78
0.79  0.79
0.8  0.8
0.81  0.81
0.82  0.82
0.83  0.83
0.84  0.84
0.85  0.85
0.86  0.86
0.87  0.87
0.88  0.88
0.89  0.89
0.9  0.9
0.91  0.91
0.92  0.92
0.93  0.93
0.94  0.94
0.95  0.95
0.96  0.96
0.97  0.97
0.98  0.98
0.99  0.99
