0  0
0.01  0.0558062
0.02  0.110616
0.03  0.164434
0.04  0.217247
0.05  0.269073
0.06  0.319895
0.07  0.369736
0.08  0.41859
0.09  0.466452
0.1  0.513334
0.11  0.55924
0.12  0.604155
0.13  0.648088
0.14  0.691046
0.15  0.732999
0.16  0.773991
0.17  0.81401
0.18  0.853001
0.19  0.891056
0.2  0.928141
0.21  0.96426
0.22  0.999393
0.23  1.03355
0.24  1.06672
0.25  1.0989
0.26  1.13015
0.27  1.16043
0.28  1.18969
0.29  1.21803
0.3  1.24536
0.31  1.27176
0.32  1.29715
0.33  1.32155
0.34  1.34504
0.35  1.36757
0.36  1.38916
0.37  1.40975
0.38  1.42932
0.39  1.44796
0.4  1.46559
0.41  1.48236
0.42  1.49809
0.43  1.51282
0.44  1.52667
0.45  1.53958
0.46  1.55155
0.47  1.5625
0.48  1.57255
0.49  1.58166
0.5  1.58982
0.51  1.597
0.52  1.60317
0.53  1.6085
0.54  1.61293
0.55  1.61635
0.56  1.61886
0.57  1.62037
0.58  1.6209
0.59  1.62045
0.6  1.61912
0.61  1.61691
0.62  1.61366
0.63  1.60956
0.64  1.60451
0.65  1.59845
0.66  1.59147
0.67  1.58364
0.68  1.57495
0.69  1.56524
0.7  1.55471
0.71  1.54328
0.72  1.53094
0.73  1.51765
0.74  1.50348
0.75  1.48842
0.76  1.47229
0.77  1.45551
0.78  1.43785
0.79  1.41918
0.8  1.39979
0.81  1.37964
0.82  1.35818
0.83  1.33632
0.84  1.31349
0.85  1.29005
0.86  1.26523
0.87  1.23991
0.88  1.21383
0.89  1.18743
0.9  1.15952
0.91  1.13153
0.92  1.10286
0.93  1.07307
0.94  1.04316
0.95  1.01287
0.96  0.990799
0.97  0.988411
0.98  0.987725
0.99  0.99
