0  0
0.707071  0.0505687
1.41414  0.138607
2.12121  0.252856
2.82828  0.388748
3.53535  0.543654
4.24242  0.715828
4.94949  0.904019
5.65657  1.10728
6.36364  1.32486
7.07071  1.55618
7.77778  1.80075
8.48485  2.05817
9.19192  2.3281
9.89899  2.61028
10.6061  2.90445
11.3131  3.21043
12.0202  3.52805
12.7273  3.85717
13.4343  4.19767
14.1414  4.54946
14.8485  4.91246
15.5556  5.28663
16.2626  5.67192
16.9697  6.06829
17.6768  6.47573
18.3838  6.89425
19.0909  7.32386
19.798  7.76458
20.5051  8.21643
21.2121  8.67947
21.9192  9.15375
22.6263  9.63933
23.3333  10.1363
24.0404  10.6447
24.7475  11.1647
25.4545  11.6963
26.1616  12.2397
26.8687  12.795
27.5758  13.3623
28.2828  13.9418
28.9899  14.5337
29.697  15.138
30.404  15.755
31.1111  16.385
31.8182  17.0279
32.5253  17.6842
33.2323  18.3541
33.9394  19.0377
34.6465  19.7353
35.3535  20.4473
36.0606  21.1739
36.7677  21.9155
37.4747  22.6723
38.1818  23.4448
38.8889  24.2333
39.596  25.0381
40.303  25.8599
41.0101  26.699
41.7172  27.5558
42.4242  28.431
43.1313  29.3251
43.8384  30.2387
44.5455  31.1724
45.2525  32.127
45.9596  33.1031
46.6667  34.1016
47.3737  35.1234
48.0808  36.1693
48.7879  37.2404
49.4949  38.3378
50.202  39.4626
50.9091  40.6163
51.6162  41.8003
52.3232  43.016
53.0303  44.2654
53.7374  45.5502
54.4444  46.8728
55.1515  48.2354
55.8586  49.6408
56.5657  51.0919
57.2727  52.5919
57.9798  54.1435
58.6869  55.7514
59.3939  57.4208
60.101  59.1575
60.8081  60.9681
61.5152  62.8616
62.2222  64.85
62.9293  66.9468
63.6364  69.1669
64.3434  71.5321
65.0505  74.071
65.7576  76.8247
66.4646  79.8513
67.1717  83.244
67.8788  87.1645
68.5859  91.9494
69.2929  98.5844
70  120
